15	433	BOSTRÖM, FRIDA	1210201609	493460506441	74			2016-09-26
16	1278	BOSTRÖM, FRIDA	1507221609	493460506442	74			2016-09-26
17	1287	MÄRTA RAMSTRÖM	140424 1609	493460221221	66			2016-09-26
28	472	KARLSSON, SARAH	120522 1609	493640159627	59			2016-10-03
29	1286							2016-10-03
26	472	KARLSSON, SARAH	120522 1609	493640159627	59			2016-10-04
27	1286	KARLSSON, SARAH	140418 1609	493640159626	59			2016-10-04
13	1287	EDBERG, JOHN	1503211609	493660066585	73			2016-10-06
14	1500	JOHANSSON,MALIN	130621 1609	493660080237	60			2016-10-06
25	630							2016-10-06
12	1140	JÖNSSON, JOHNNY	140215 1609		65			2016-10-07
19	630	Elin Victoria Margaretha	1408161609	493670439932	58			2016-10-07
24	901							2016-10-07
11	1140	JÖNSSON, JOHNNY	140215 1609	493720143034	65			2016-10-12
23	901	NORDGREN, MAGNUS						2016-10-12
4	901	NORDGREN, MAGNUS	110802 1609	493730060970	55			2016-10-13
5	901	NORDLING,BERNT TOBIAS	130109 1609	493730070380	64			2016-10-13
6	336	WALLENMAN,MARIA	111006 1609	493740092612	56			2016-10-14
7	610	WALLENMAN,MARIA	111006 1608	493740092610	79			2016-10-14
8	641	WALLENMAN,MARIA	130702 1609	493740092611	56			2016-10-14
9	881	HEDENBERG, ULRIKA	141111 1609	493740078787	67			2016-10-14
10	915	WALLENMAN,MARIA	130702 1608	493740092613	79			2016-10-14
18	795	ELMAZ REDJEPOVSKI	1412081609	493780014412	68			2016-10-18
1	2703	Åsa Karlberg		493800087860				2016-10-20
2	318630,19	Härnösands Kommun		753-7699				2016-10-20
21	2703	Åsa Karlberg		493800087860				2016-10-20
22	318630,19	Härnösands Kommun		753-7699				2016-10-20